M. L. DeBusk-Lane, Ph.D. - Conformal Prediction
…
  new_preds <- new_data %>% 
    mutate(predictions = predict(model, .),
           .lower = predictions - error_quantile,
           .upper = predictions + error_quantile
           )
}

lm_result <- conformal_interval(new_data = test, model = lm_mod, calibration_set = val, alpha = 0.05)

      95% 
0.9635453 

lm_result

# A tibble: 2,000 × 5
         x       y predictions   .lower .upper
     <dbl>   <dbl>       <dbl>    <dbl>  <dbl>
 1  0.197   1.89        0.960  -0.00344  1.92 
 2 -0.265   0.164       0.389  -0.575    1.35 
 3 -0.523  -0.0874      0.0699 -0.894    1.03 
 4  0.845   1.10        1.76    0.799    2.73 
 5  0.0130  1.22        0.733  -0.231    1.70 
 6 -0.819  -0.679      -0.297  -1.26     0.667
 7 -0.630  -0.261      -0.0630 -1.03     0.901
 8 -0.560  -0.0740      0.0243 -0.939    0.988
 9 -0.314   0.166       0.329  -0.635    1.29 
10 -0.0195  1.08        0.693  -0.271    1.66 
# ℹ 1,990 more rows
…
